%YAML 1.1
%TAG !u! tag:unity3d.com,2011:
--- !u!1 &153364
GameObject:
  m_ObjectHideFlags: 0
  m_PrefabParentObject: {fileID: 0}
  m_PrefabInternal: {fileID: 100100000}
  serializedVersion: 5
  m_Component:
  - component: {fileID: 453364}
  - component: {fileID: 11453368}
  m_Layer: 0
  m_Name: Tyres
  m_TagString: PicaVoxelVolume
  m_Icon: {fileID: 0}
  m_NavMeshLayer: 0
  m_StaticEditorFlags: 0
  m_IsActive: 1
--- !u!1 &153366
GameObject:
  m_ObjectHideFlags: 0
  m_PrefabParentObject: {fileID: 0}
  m_PrefabInternal: {fileID: 100100000}
  serializedVersion: 5
  m_Component:
  - component: {fileID: 453366}
  - component: {fileID: 6553372}
  m_Layer: 0
  m_Name: Hitbox
  m_TagString: Untagged
  m_Icon: {fileID: 0}
  m_NavMeshLayer: 0
  m_StaticEditorFlags: 0
  m_IsActive: 1
--- !u!1 &153368
GameObject:
  m_ObjectHideFlags: 0
  m_PrefabParentObject: {fileID: 0}
  m_PrefabInternal: {fileID: 100100000}
  serializedVersion: 5
  m_Component:
  - component: {fileID: 453368}
  - component: {fileID: 11453370}
  m_Layer: 0
  m_Name: Frame
  m_TagString: Untagged
  m_Icon: {fileID: 0}
  m_NavMeshLayer: 0
  m_StaticEditorFlags: 0
  m_IsActive: 1
--- !u!1 &153370
GameObject:
  m_ObjectHideFlags: 1
  m_PrefabParentObject: {fileID: 0}
  m_PrefabInternal: {fileID: 100100000}
  serializedVersion: 5
  m_Component:
  - component: {fileID: 453370}
  m_Layer: 0
  m_Name: Chunks
  m_TagString: Untagged
  m_Icon: {fileID: 0}
  m_NavMeshLayer: 0
  m_StaticEditorFlags: 0
  m_IsActive: 1
--- !u!1 &153372
GameObject:
  m_ObjectHideFlags: 1
  m_PrefabParentObject: {fileID: 0}
  m_PrefabInternal: {fileID: 100100000}
  serializedVersion: 5
  m_Component:
  - component: {fileID: 453372}
  - component: {fileID: 3353372}
  - component: {fileID: 2353372}
  - component: {fileID: 11453372}
  - component: {fileID: 6453372}
  m_Layer: 0
  m_Name: Chunk (0,0,0)
  m_TagString: Untagged
  m_Icon: {fileID: 0}
  m_NavMeshLayer: 0
  m_StaticEditorFlags: 0
  m_IsActive: 1
--- !u!4 &453364
Transform:
  m_ObjectHideFlags: 1
  m_PrefabParentObject: {fileID: 0}
  m_PrefabInternal: {fileID: 100100000}
  m_GameObject: {fileID: 153364}
  m_LocalRotation: {x: 0, y: 0, z: 0, w: 1}
  m_LocalPosition: {x: 0, y: 0.62, z: -19.27}
  m_LocalScale: {x: 1, y: 1, z: 1}
  m_Children:
  - {fileID: 453366}
  - {fileID: 453368}
  m_Father: {fileID: 0}
  m_RootOrder: 0
  m_LocalEulerAnglesHint: {x: 0, y: 0, z: 0}
--- !u!4 &453366
Transform:
  m_ObjectHideFlags: 1
  m_PrefabParentObject: {fileID: 0}
  m_PrefabInternal: {fileID: 100100000}
  m_GameObject: {fileID: 153366}
  m_LocalRotation: {x: 0, y: 0, z: 0, w: 1}
  m_LocalPosition: {x: -0, y: -0, z: -0}
  m_LocalScale: {x: 1, y: 1, z: 1}
  m_Children: []
  m_Father: {fileID: 453364}
  m_RootOrder: 0
  m_LocalEulerAnglesHint: {x: 0, y: 0, z: 0}
--- !u!4 &453368
Transform:
  m_ObjectHideFlags: 1
  m_PrefabParentObject: {fileID: 0}
  m_PrefabInternal: {fileID: 100100000}
  m_GameObject: {fileID: 153368}
  m_LocalRotation: {x: 0, y: 0, z: 0, w: 1}
  m_LocalPosition: {x: -0, y: -0, z: -0}
  m_LocalScale: {x: 1, y: 1, z: 1}
  m_Children:
  - {fileID: 453370}
  m_Father: {fileID: 453364}
  m_RootOrder: 1
  m_LocalEulerAnglesHint: {x: 0, y: 0, z: 0}
--- !u!4 &453370
Transform:
  m_ObjectHideFlags: 1
  m_PrefabParentObject: {fileID: 0}
  m_PrefabInternal: {fileID: 100100000}
  m_GameObject: {fileID: 153370}
  m_LocalRotation: {x: 0, y: 0, z: 0, w: 1}
  m_LocalPosition: {x: 0, y: 0, z: 0}
  m_LocalScale: {x: 1, y: 1, z: 1}
  m_Children:
  - {fileID: 453372}
  m_Father: {fileID: 453368}
  m_RootOrder: 0
  m_LocalEulerAnglesHint: {x: 0, y: 0, z: 0}
--- !u!4 &453372
Transform:
  m_ObjectHideFlags: 1
  m_PrefabParentObject: {fileID: 0}
  m_PrefabInternal: {fileID: 100100000}
  m_GameObject: {fileID: 153372}
  m_LocalRotation: {x: 0, y: 0, z: 0, w: 1}
  m_LocalPosition: {x: 0, y: 0, z: 0}
  m_LocalScale: {x: 1, y: 1, z: 1}
  m_Children: []
  m_Father: {fileID: 453370}
  m_RootOrder: 0
  m_LocalEulerAnglesHint: {x: 0, y: 0, z: 0}
--- !u!23 &2353372
MeshRenderer:
  m_ObjectHideFlags: 1
  m_PrefabParentObject: {fileID: 0}
  m_PrefabInternal: {fileID: 100100000}
  m_GameObject: {fileID: 153372}
  m_Enabled: 1
  m_CastShadows: 1
  m_ReceiveShadows: 1
  m_MotionVectors: 1
  m_LightProbeUsage: 0
  m_ReflectionProbeUsage: 1
  m_Materials:
  - {fileID: 2100000, guid: d05b013250f9a3a41a16c1583247d6df, type: 2}
  m_StaticBatchInfo:
    firstSubMesh: 0
    subMeshCount: 0
  m_StaticBatchRoot: {fileID: 0}
  m_ProbeAnchor: {fileID: 0}
  m_LightProbeVolumeOverride: {fileID: 0}
  m_ScaleInLightmap: 1
  m_PreserveUVs: 0
  m_IgnoreNormalsForChartDetection: 0
  m_ImportantGI: 0
  m_SelectedEditorRenderState: 3
  m_MinimumChartSize: 4
  m_AutoUVMaxDistance: 0.5
  m_AutoUVMaxAngle: 89
  m_LightmapParameters: {fileID: 0}
  m_SortingLayerID: 0
  m_SortingLayer: 0
  m_SortingOrder: 0
--- !u!33 &3353372
MeshFilter:
  m_ObjectHideFlags: 1
  m_PrefabParentObject: {fileID: 0}
  m_PrefabInternal: {fileID: 100100000}
  m_GameObject: {fileID: 153372}
  m_Mesh: {fileID: 0}
--- !u!64 &6453372
MeshCollider:
  m_ObjectHideFlags: 1
  m_PrefabParentObject: {fileID: 0}
  m_PrefabInternal: {fileID: 100100000}
  m_GameObject: {fileID: 153372}
  m_Material: {fileID: 0}
  m_IsTrigger: 0
  m_Enabled: 1
  serializedVersion: 2
  m_Convex: 1
  m_InflateMesh: 0
  m_SkinWidth: 0.01
  m_Mesh: {fileID: 0}
--- !u!65 &6553372
BoxCollider:
  m_ObjectHideFlags: 1
  m_PrefabParentObject: {fileID: 0}
  m_PrefabInternal: {fileID: 100100000}
  m_GameObject: {fileID: 153366}
  m_Material: {fileID: 0}
  m_IsTrigger: 1
  m_Enabled: 1
  serializedVersion: 2
  m_Size: {x: 1.3000001, y: 1.2, z: 1.3000001}
  m_Center: {x: 0.65000004, y: 0.6, z: 0.65000004}
--- !u!114 &11453368
MonoBehaviour:
  m_ObjectHideFlags: 1
  m_PrefabParentObject: {fileID: 0}
  m_PrefabInternal: {fileID: 100100000}
  m_GameObject: {fileID: 153364}
  m_Enabled: 1
  m_EditorHideFlags: 0
  m_Script: {fileID: 11500000, guid: f481c0c791c90fd44bde5912521607c6, type: 3}
  m_Name: 
  m_EditorClassIdentifier: 
  FramePrefab: {fileID: 103154, guid: 878ed78a25d46de4ea3cb382e3682dd8, type: 2}
  SaveToMeshStore: 1
  XChunkSize: 16
  YChunkSize: 16
  ZChunkSize: 16
  XSize: 13
  YSize: 12
  ZSize: 13
  VoxelSize: 0.1
  OverlapAmount: 0
  Pivot: {x: 0, y: 0, z: 0}
  CurrentFrame: 0
  Frames:
  - {fileID: 11453370}
  Hitbox: {fileID: 6553372}
  MeshingMode: 0
  MeshColliderMeshingMode: 0
  GenerateMeshColliderSeparately: 0
  Material: {fileID: 2100000, guid: d05b013250f9a3a41a16c1583247d6df, type: 2}
  PhysicMaterial: {fileID: 0}
  CollisionTrigger: 0
  CollisionMode: 1
  SelfShadingIntensity: 0.2
  CastShadows: 1
  ReceiveShadows: 1
  ChunkLayer: 0
  PaletteColors:
  - {r: 1, g: 1, b: 1, a: 1}
  - {r: 0.4, g: 0.4, b: 0.4, a: 1}
  - {r: 1, g: 0, b: 0, a: 1}
  - {r: 0, g: 1, b: 0, a: 1}
  - {r: 0, g: 0, b: 1, a: 1}
  - {r: 0.88235295, g: 0.88235295, b: 0.88235295, a: 1}
  - {r: 0.29803923, g: 0.29803923, b: 0.29803923, a: 1}
  - {r: 1, g: 1, b: 0, a: 1}
  - {r: 0, g: 1, b: 1, a: 1}
  - {r: 1, g: 0, b: 1, a: 1}
  - {r: 0.7058824, g: 0.7058824, b: 0.7058824, a: 1}
  - {r: 0.2, g: 0.2, b: 0.2, a: 1}
  - {r: 0.625, g: 0.35, b: 0, a: 1}
  - {r: 0, g: 0.6397059, b: 0, a: 1}
  - {r: 1, g: 0.65882355, b: 0, a: 1}
  - {r: 0.6, g: 0.6, b: 0.6, a: 1}
  - {r: 0.09803922, g: 0.09803922, b: 0.09803922, a: 1}
  - {r: 0.3897059, g: 0.21951787, b: 0, a: 1}
  - {r: 0, g: 0.45588237, b: 0, a: 1}
  - {r: 0.8509804, g: 0.7058824, b: 0.5411765, a: 1}
  - {r: 0.5019608, g: 0.5019608, b: 0.5019608, a: 1}
  - {r: 0, g: 0, b: 0, a: 1}
  - {r: 0.25, g: 0.14141414, b: 0, a: 1}
  - {r: 0, g: 0.2647059, b: 0, a: 1}
  - {r: 0.8455882, g: 0.7168463, b: 0.20517948, a: 1}
  RuntimOnlyMesh: 0
  IsEnabledForEditing: 0
  DrawGrid: 0
  DrawMesh: 0
  AssetGuid: 
  PaintMode: 0
  MeshCompression: 0
  ImportedFrom: 0
  ImportedFile: 
  ImportedCutoutColor: {r: 0, g: 0, b: 0, a: 0}
  thisInstanceId: 0
  Undone: 0
--- !u!114 &11453370
MonoBehaviour:
  m_ObjectHideFlags: 1
  m_PrefabParentObject: {fileID: 0}
  m_PrefabInternal: {fileID: 100100000}
  m_GameObject: {fileID: 153368}
  m_Enabled: 1
  m_EditorHideFlags: 0
  m_Script: {fileID: 11500000, guid: c668a8f96eb85b945adc959d145691f0, type: 3}
  m_Name: 
  m_EditorClassIdentifier: 
  ChunkPrefab: {fileID: 189682, guid: 540a2ecbb26e28f43ae32c0b189b7a4c, type: 2}
  ParentVolume: {fileID: 11453368}
  XSize: 13
  YSize: 12
  ZSize: 13
  AssetGuid: 
  bserializedVoxels: 1f8b0800f07ecd5400ffed5a411283200c0ccff0b77ec3d7d2199d8ead92981010c4e59043cdac61ddb510a439c6488910e6699af6405c1e7502e0191bca7a8fbf70aa800ddd02e8033890f51792b518047c3380cb0b5f265515b0247601e0d341660592801b00783808ca0a5839b607707bc158819bc40a0077eb204bc595013c1c047305c1c15f71006e1c93792f64dd3c389e601500df02635c0e4eaf4dbb17d60b7bb04b795996df600550fc6bb05e48899f3704cfb38203f9312a389000c89c724856fc763585277320acc733a72f11a19abe44846947904cd64a5e3449871c18146b97fc437490cf81aa45032fc00bf002bc002fc00bc24209fb05ec17b05f784f1fe9aaa7fa863e12a18f14c73f5f708f8e5ae3ed7aebe0608473e7725e78f3992b38a001be472aec85cc83aa3e014abb62640e3e4ba805d99c270000
  HasDeserialized: 1
--- !u!114 &11453372
MonoBehaviour:
  m_ObjectHideFlags: 1
  m_PrefabParentObject: {fileID: 0}
  m_PrefabInternal: {fileID: 100100000}
  m_GameObject: {fileID: 153372}
  m_Enabled: 1
  m_EditorHideFlags: 0
  m_Script: {fileID: 11500000, guid: 52e45c1111fbabc4bbdddbace463b2a2, type: 3}
  m_Name: 
  m_EditorClassIdentifier: 
  IsUpdated: 0
--- !u!1001 &100100000
Prefab:
  m_ObjectHideFlags: 1
  serializedVersion: 2
  m_Modification:
    m_TransformParent: {fileID: 0}
    m_Modifications: []
    m_RemovedComponents: []
  m_ParentPrefab: {fileID: 0}
  m_RootGameObject: {fileID: 153364}
  m_IsPrefabParent: 1
