%YAML 1.1
%TAG !u! tag:unity3d.com,2011:
--- !u!1 &105730
GameObject:
  m_ObjectHideFlags: 1
  m_PrefabParentObject: {fileID: 0}
  m_PrefabInternal: {fileID: 100100000}
  serializedVersion: 5
  m_Component:
  - component: {fileID: 402004}
  - component: {fileID: 3307364}
  - component: {fileID: 2324424}
  - component: {fileID: 11463928}
  m_Layer: 0
  m_Name: Chunk (0,0,0)
  m_TagString: Untagged
  m_Icon: {fileID: 0}
  m_NavMeshLayer: 0
  m_StaticEditorFlags: 0
  m_IsActive: 1
--- !u!1 &187758
GameObject:
  m_ObjectHideFlags: 1
  m_PrefabParentObject: {fileID: 0}
  m_PrefabInternal: {fileID: 100100000}
  serializedVersion: 5
  m_Component:
  - component: {fileID: 454022}
  - component: {fileID: 3313708}
  - component: {fileID: 2388814}
  - component: {fileID: 11493984}
  m_Layer: 0
  m_Name: Chunk (0,0,0)
  m_TagString: Untagged
  m_Icon: {fileID: 0}
  m_NavMeshLayer: 0
  m_StaticEditorFlags: 0
  m_IsActive: 1
--- !u!1 &195386
GameObject:
  m_ObjectHideFlags: 1
  m_PrefabParentObject: {fileID: 0}
  m_PrefabInternal: {fileID: 100100000}
  serializedVersion: 5
  m_Component:
  - component: {fileID: 495386}
  m_Layer: 0
  m_Name: Chunks
  m_TagString: Untagged
  m_Icon: {fileID: 0}
  m_NavMeshLayer: 0
  m_StaticEditorFlags: 0
  m_IsActive: 1
--- !u!1 &195388
GameObject:
  m_ObjectHideFlags: 0
  m_PrefabParentObject: {fileID: 0}
  m_PrefabInternal: {fileID: 100100000}
  serializedVersion: 5
  m_Component:
  - component: {fileID: 495388}
  - component: {fileID: 11495388}
  m_Layer: 0
  m_Name: Frame
  m_TagString: Untagged
  m_Icon: {fileID: 0}
  m_NavMeshLayer: 0
  m_StaticEditorFlags: 0
  m_IsActive: 0
--- !u!1 &195390
GameObject:
  m_ObjectHideFlags: 1
  m_PrefabParentObject: {fileID: 0}
  m_PrefabInternal: {fileID: 100100000}
  serializedVersion: 5
  m_Component:
  - component: {fileID: 495390}
  m_Layer: 0
  m_Name: Chunks
  m_TagString: Untagged
  m_Icon: {fileID: 0}
  m_NavMeshLayer: 0
  m_StaticEditorFlags: 0
  m_IsActive: 1
--- !u!1 &195392
GameObject:
  m_ObjectHideFlags: 0
  m_PrefabParentObject: {fileID: 0}
  m_PrefabInternal: {fileID: 100100000}
  serializedVersion: 5
  m_Component:
  - component: {fileID: 495392}
  - component: {fileID: 11495390}
  m_Layer: 0
  m_Name: Frame
  m_TagString: Untagged
  m_Icon: {fileID: 0}
  m_NavMeshLayer: 0
  m_StaticEditorFlags: 0
  m_IsActive: 0
--- !u!1 &195394
GameObject:
  m_ObjectHideFlags: 1
  m_PrefabParentObject: {fileID: 0}
  m_PrefabInternal: {fileID: 100100000}
  serializedVersion: 5
  m_Component:
  - component: {fileID: 495394}
  m_Layer: 0
  m_Name: Chunks
  m_TagString: Untagged
  m_Icon: {fileID: 0}
  m_NavMeshLayer: 0
  m_StaticEditorFlags: 0
  m_IsActive: 1
--- !u!1 &195396
GameObject:
  m_ObjectHideFlags: 0
  m_PrefabParentObject: {fileID: 0}
  m_PrefabInternal: {fileID: 100100000}
  serializedVersion: 5
  m_Component:
  - component: {fileID: 495396}
  - component: {fileID: 11495392}
  m_Layer: 0
  m_Name: Frame
  m_TagString: Untagged
  m_Icon: {fileID: 0}
  m_NavMeshLayer: 0
  m_StaticEditorFlags: 0
  m_IsActive: 1
--- !u!1 &195398
GameObject:
  m_ObjectHideFlags: 0
  m_PrefabParentObject: {fileID: 0}
  m_PrefabInternal: {fileID: 100100000}
  serializedVersion: 5
  m_Component:
  - component: {fileID: 495398}
  - component: {fileID: 6595380}
  m_Layer: 0
  m_Name: Hitbox
  m_TagString: Untagged
  m_Icon: {fileID: 0}
  m_NavMeshLayer: 0
  m_StaticEditorFlags: 0
  m_IsActive: 0
--- !u!1 &195400
GameObject:
  m_ObjectHideFlags: 0
  m_PrefabParentObject: {fileID: 0}
  m_PrefabInternal: {fileID: 100100000}
  serializedVersion: 5
  m_Component:
  - component: {fileID: 495400}
  - component: {fileID: 11495394}
  - component: {fileID: 11495386}
  - component: {fileID: 11445226}
  m_Layer: 0
  m_Name: Invader
  m_TagString: PicaVoxelVolume
  m_Icon: {fileID: 0}
  m_NavMeshLayer: 0
  m_StaticEditorFlags: 0
  m_IsActive: 1
--- !u!4 &402004
Transform:
  m_ObjectHideFlags: 1
  m_PrefabParentObject: {fileID: 0}
  m_PrefabInternal: {fileID: 100100000}
  m_GameObject: {fileID: 105730}
  m_LocalRotation: {x: 0, y: 0, z: 0, w: 1}
  m_LocalPosition: {x: 0, y: 0, z: 0}
  m_LocalScale: {x: 1, y: 1, z: 1}
  m_Children: []
  m_Father: {fileID: 495390}
  m_RootOrder: 0
  m_LocalEulerAnglesHint: {x: 0, y: 0, z: 0}
--- !u!4 &454022
Transform:
  m_ObjectHideFlags: 1
  m_PrefabParentObject: {fileID: 0}
  m_PrefabInternal: {fileID: 100100000}
  m_GameObject: {fileID: 187758}
  m_LocalRotation: {x: 0, y: 0, z: 0, w: 1}
  m_LocalPosition: {x: 0, y: 0, z: 0}
  m_LocalScale: {x: 1, y: 1, z: 1}
  m_Children: []
  m_Father: {fileID: 495386}
  m_RootOrder: 0
  m_LocalEulerAnglesHint: {x: 0, y: 0, z: 0}
--- !u!4 &495386
Transform:
  m_ObjectHideFlags: 1
  m_PrefabParentObject: {fileID: 0}
  m_PrefabInternal: {fileID: 100100000}
  m_GameObject: {fileID: 195386}
  m_LocalRotation: {x: 0, y: 0, z: 0, w: 1}
  m_LocalPosition: {x: 0, y: 0, z: 0}
  m_LocalScale: {x: 1, y: 1, z: 1}
  m_Children:
  - {fileID: 454022}
  m_Father: {fileID: 495388}
  m_RootOrder: 0
  m_LocalEulerAnglesHint: {x: 0, y: 0, z: 0}
--- !u!4 &495388
Transform:
  m_ObjectHideFlags: 1
  m_PrefabParentObject: {fileID: 0}
  m_PrefabInternal: {fileID: 100100000}
  m_GameObject: {fileID: 195388}
  m_LocalRotation: {x: 0, y: 0, z: 0, w: 1}
  m_LocalPosition: {x: -0.55, y: -0.4, z: -0.3}
  m_LocalScale: {x: 1, y: 1, z: 1}
  m_Children:
  - {fileID: 495386}
  m_Father: {fileID: 495400}
  m_RootOrder: 3
  m_LocalEulerAnglesHint: {x: 0, y: 0, z: 0}
--- !u!4 &495390
Transform:
  m_ObjectHideFlags: 1
  m_PrefabParentObject: {fileID: 0}
  m_PrefabInternal: {fileID: 100100000}
  m_GameObject: {fileID: 195390}
  m_LocalRotation: {x: 0, y: 0, z: 0, w: 1}
  m_LocalPosition: {x: 0, y: 0, z: 0}
  m_LocalScale: {x: 1, y: 1, z: 1}
  m_Children:
  - {fileID: 402004}
  m_Father: {fileID: 495392}
  m_RootOrder: 0
  m_LocalEulerAnglesHint: {x: 0, y: 0, z: 0}
--- !u!4 &495392
Transform:
  m_ObjectHideFlags: 1
  m_PrefabParentObject: {fileID: 0}
  m_PrefabInternal: {fileID: 100100000}
  m_GameObject: {fileID: 195392}
  m_LocalRotation: {x: 0, y: 0, z: 0, w: 1}
  m_LocalPosition: {x: -0.55, y: -0.4, z: -0.3}
  m_LocalScale: {x: 1, y: 1, z: 1}
  m_Children:
  - {fileID: 495390}
  m_Father: {fileID: 495400}
  m_RootOrder: 2
  m_LocalEulerAnglesHint: {x: 0, y: 0, z: 0}
--- !u!4 &495394
Transform:
  m_ObjectHideFlags: 1
  m_PrefabParentObject: {fileID: 0}
  m_PrefabInternal: {fileID: 100100000}
  m_GameObject: {fileID: 195394}
  m_LocalRotation: {x: 0, y: 0, z: 0, w: 1}
  m_LocalPosition: {x: 0, y: 0, z: 0}
  m_LocalScale: {x: 1, y: 1, z: 1}
  m_Children: []
  m_Father: {fileID: 495396}
  m_RootOrder: 0
  m_LocalEulerAnglesHint: {x: 0, y: 0, z: 0}
--- !u!4 &495396
Transform:
  m_ObjectHideFlags: 1
  m_PrefabParentObject: {fileID: 0}
  m_PrefabInternal: {fileID: 100100000}
  m_GameObject: {fileID: 195396}
  m_LocalRotation: {x: 0, y: 0, z: 0, w: 1}
  m_LocalPosition: {x: -0.55, y: -0.4, z: -0.3}
  m_LocalScale: {x: 1, y: 1, z: 1}
  m_Children:
  - {fileID: 495394}
  m_Father: {fileID: 495400}
  m_RootOrder: 1
  m_LocalEulerAnglesHint: {x: 0, y: 0, z: 0}
--- !u!4 &495398
Transform:
  m_ObjectHideFlags: 1
  m_PrefabParentObject: {fileID: 0}
  m_PrefabInternal: {fileID: 100100000}
  m_GameObject: {fileID: 195398}
  m_LocalRotation: {x: 0, y: 0, z: 0, w: 1}
  m_LocalPosition: {x: -0.55, y: -0.4, z: -0.3}
  m_LocalScale: {x: 1, y: 1, z: 1}
  m_Children: []
  m_Father: {fileID: 495400}
  m_RootOrder: 0
  m_LocalEulerAnglesHint: {x: 0, y: 0, z: 0}
--- !u!4 &495400
Transform:
  m_ObjectHideFlags: 1
  m_PrefabParentObject: {fileID: 0}
  m_PrefabInternal: {fileID: 100100000}
  m_GameObject: {fileID: 195400}
  m_LocalRotation: {x: 0, y: 0, z: 0, w: 1}
  m_LocalPosition: {x: -23.375134, y: -0.754333, z: 7.8085318}
  m_LocalScale: {x: 1, y: 1, z: 1}
  m_Children:
  - {fileID: 495398}
  - {fileID: 495396}
  - {fileID: 495392}
  - {fileID: 495388}
  m_Father: {fileID: 0}
  m_RootOrder: 0
  m_LocalEulerAnglesHint: {x: 0, y: 0, z: 0}
--- !u!23 &2324424
MeshRenderer:
  m_ObjectHideFlags: 1
  m_PrefabParentObject: {fileID: 0}
  m_PrefabInternal: {fileID: 100100000}
  m_GameObject: {fileID: 105730}
  m_Enabled: 1
  m_CastShadows: 1
  m_ReceiveShadows: 1
  m_MotionVectors: 1
  m_LightProbeUsage: 0
  m_ReflectionProbeUsage: 1
  m_Materials:
  - {fileID: 2100000, guid: d05b013250f9a3a41a16c1583247d6df, type: 2}
  m_StaticBatchInfo:
    firstSubMesh: 0
    subMeshCount: 0
  m_StaticBatchRoot: {fileID: 0}
  m_ProbeAnchor: {fileID: 0}
  m_LightProbeVolumeOverride: {fileID: 0}
  m_ScaleInLightmap: 1
  m_PreserveUVs: 0
  m_IgnoreNormalsForChartDetection: 0
  m_ImportantGI: 0
  m_SelectedEditorRenderState: 3
  m_MinimumChartSize: 4
  m_AutoUVMaxDistance: 0.5
  m_AutoUVMaxAngle: 89
  m_LightmapParameters: {fileID: 0}
  m_SortingLayerID: 0
  m_SortingLayer: 0
  m_SortingOrder: 0
--- !u!23 &2388814
MeshRenderer:
  m_ObjectHideFlags: 1
  m_PrefabParentObject: {fileID: 0}
  m_PrefabInternal: {fileID: 100100000}
  m_GameObject: {fileID: 187758}
  m_Enabled: 1
  m_CastShadows: 1
  m_ReceiveShadows: 1
  m_MotionVectors: 1
  m_LightProbeUsage: 0
  m_ReflectionProbeUsage: 1
  m_Materials:
  - {fileID: 2100000, guid: d05b013250f9a3a41a16c1583247d6df, type: 2}
  m_StaticBatchInfo:
    firstSubMesh: 0
    subMeshCount: 0
  m_StaticBatchRoot: {fileID: 0}
  m_ProbeAnchor: {fileID: 0}
  m_LightProbeVolumeOverride: {fileID: 0}
  m_ScaleInLightmap: 1
  m_PreserveUVs: 0
  m_IgnoreNormalsForChartDetection: 0
  m_ImportantGI: 0
  m_SelectedEditorRenderState: 3
  m_MinimumChartSize: 4
  m_AutoUVMaxDistance: 0.5
  m_AutoUVMaxAngle: 89
  m_LightmapParameters: {fileID: 0}
  m_SortingLayerID: 0
  m_SortingLayer: 0
  m_SortingOrder: 0
--- !u!33 &3307364
MeshFilter:
  m_ObjectHideFlags: 1
  m_PrefabParentObject: {fileID: 0}
  m_PrefabInternal: {fileID: 100100000}
  m_GameObject: {fileID: 105730}
  m_Mesh: {fileID: 4300000, guid: 4d0363de9a4a595429ee4af914040658, type: 2}
--- !u!33 &3313708
MeshFilter:
  m_ObjectHideFlags: 1
  m_PrefabParentObject: {fileID: 0}
  m_PrefabInternal: {fileID: 100100000}
  m_GameObject: {fileID: 187758}
  m_Mesh: {fileID: 4300000, guid: 1a69a7cabc6590b4ba03ecaf7b245bcb, type: 2}
--- !u!65 &6595380
BoxCollider:
  m_ObjectHideFlags: 1
  m_PrefabParentObject: {fileID: 0}
  m_PrefabInternal: {fileID: 100100000}
  m_GameObject: {fileID: 195398}
  m_Material: {fileID: 0}
  m_IsTrigger: 1
  m_Enabled: 1
  serializedVersion: 2
  m_Size: {x: 1.1, y: 0.8, z: 0.6}
  m_Center: {x: 0.55, y: 0.4, z: 0.3}
--- !u!114 &11445226
MonoBehaviour:
  m_ObjectHideFlags: 1
  m_PrefabParentObject: {fileID: 0}
  m_PrefabInternal: {fileID: 100100000}
  m_GameObject: {fileID: 195400}
  m_Enabled: 1
  m_EditorHideFlags: 0
  m_Script: {fileID: 11500000, guid: 8c8175e86f1c16a46afe47eec3a9e1ea, type: 3}
  m_Name: 
  m_EditorClassIdentifier: 
  Wave: {fileID: 0}
--- !u!114 &11463928
MonoBehaviour:
  m_ObjectHideFlags: 1
  m_PrefabParentObject: {fileID: 0}
  m_PrefabInternal: {fileID: 100100000}
  m_GameObject: {fileID: 105730}
  m_Enabled: 1
  m_EditorHideFlags: 0
  m_Script: {fileID: 11500000, guid: 52e45c1111fbabc4bbdddbace463b2a2, type: 3}
  m_Name: 
  m_EditorClassIdentifier: 
  IsUpdated: 0
--- !u!114 &11493984
MonoBehaviour:
  m_ObjectHideFlags: 1
  m_PrefabParentObject: {fileID: 0}
  m_PrefabInternal: {fileID: 100100000}
  m_GameObject: {fileID: 187758}
  m_Enabled: 1
  m_EditorHideFlags: 0
  m_Script: {fileID: 11500000, guid: 52e45c1111fbabc4bbdddbace463b2a2, type: 3}
  m_Name: 
  m_EditorClassIdentifier: 
  IsUpdated: 0
--- !u!114 &11495386
MonoBehaviour:
  m_ObjectHideFlags: 1
  m_PrefabParentObject: {fileID: 0}
  m_PrefabInternal: {fileID: 100100000}
  m_GameObject: {fileID: 195400}
  m_Enabled: 1
  m_EditorHideFlags: 0
  m_Script: {fileID: 11500000, guid: 0500fac786895c04f874b50549072187, type: 3}
  m_Name: 
  m_EditorClassIdentifier: 
  Interval: 1
  PingPong: 1
  Loop: 1
  RandomStartFrame: 0
  PlayOnAwake: 1
  IsPlaying: 0
  CurrentFrame: 0
  NumFrames: 0
--- !u!114 &11495388
MonoBehaviour:
  m_ObjectHideFlags: 1
  m_PrefabParentObject: {fileID: 0}
  m_PrefabInternal: {fileID: 100100000}
  m_GameObject: {fileID: 195388}
  m_Enabled: 1
  m_EditorHideFlags: 0
  m_Script: {fileID: 11500000, guid: c668a8f96eb85b945adc959d145691f0, type: 3}
  m_Name: 
  m_EditorClassIdentifier: 
  ChunkPrefab: {fileID: 189682, guid: 540a2ecbb26e28f43ae32c0b189b7a4c, type: 2}
  ParentVolume: {fileID: 11495394}
  XSize: 11
  YSize: 8
  ZSize: 6
  AssetGuid: bbb03a26-a8d9-4b0a-a68a-611c430bab5f
  bserializedVoxels: 1f8b08005bc6495700ffcd95e10ec3200884f5cd7d8d3eadbbc584b19e08ae6ad61fc42085bb2fd5a65253aab9543c1cdbeef28859e8c9114a827aba6a9b7edd991d718daeefae0ff319689ee2d3f5c2cc9f679a2aab4f5cb3cbd922b3230f7aa2fc4652e7659dcb755d3841ef787bb7d5b87cba6f49ffc86e8c4342cf5c5a84a8cea98ff4d17a5cef4c807d3de413d17cb2067c2c47b37966f543e6a4f7c8ace57c2caa415611cd276bfe8d8f3eefd63ac667edfdf3b975a7ee5efe2adcefc772a7698c6bacdd1d7951c5bec8bbcfd0522853a8e7d7df736a3732cbad61d7fb3270e7ea9922e052b5bcc814570f3a0c6aa47fa4066aa59ed72f32a20a12600c0000
  HasDeserialized: 1
--- !u!114 &11495390
MonoBehaviour:
  m_ObjectHideFlags: 1
  m_PrefabParentObject: {fileID: 0}
  m_PrefabInternal: {fileID: 100100000}
  m_GameObject: {fileID: 195392}
  m_Enabled: 1
  m_EditorHideFlags: 0
  m_Script: {fileID: 11500000, guid: c668a8f96eb85b945adc959d145691f0, type: 3}
  m_Name: 
  m_EditorClassIdentifier: 
  ChunkPrefab: {fileID: 189682, guid: 540a2ecbb26e28f43ae32c0b189b7a4c, type: 2}
  ParentVolume: {fileID: 11495394}
  XSize: 11
  YSize: 8
  ZSize: 6
  AssetGuid: b53fb336-446b-437c-b3da-7a385f5190c9
  bserializedVoxels: 1f8b08005bc6495700ffed96db0e80200886f1cd7d0d9fd6686e4672b2a5ac8bba600e11f93fc9825c016aa44db9e2c32dad81cf364f8fc10c388eb13f1f9b33f271cf6b498cb6cb0e7fefb476fa9480d80f29975290c36987b53c839b4dcc20ee4b23e73800e649b9592c443d3b3bdb7d5f473b27c0b5502674cc23458f5d6dfc2cf2a12ade8c45bd94ffcc389e80bde3723e1ae1497a76b5f1b35fe3b3aec7d6de3fd7cdf3e8ee1dba423b5faafa7d8c966187bf57cedf8b413b902f97c190addaf5dfa8d1e88ab0123786abdee70923d308b8da3fc5e700f37857ef600c0000
  HasDeserialized: 1
--- !u!114 &11495392
MonoBehaviour:
  m_ObjectHideFlags: 1
  m_PrefabParentObject: {fileID: 0}
  m_PrefabInternal: {fileID: 100100000}
  m_GameObject: {fileID: 195396}
  m_Enabled: 1
  m_EditorHideFlags: 0
  m_Script: {fileID: 11500000, guid: c668a8f96eb85b945adc959d145691f0, type: 3}
  m_Name: 
  m_EditorClassIdentifier: 
  ChunkPrefab: {fileID: 189682, guid: 540a2ecbb26e28f43ae32c0b189b7a4c, type: 2}
  ParentVolume: {fileID: 11495394}
  XSize: 11
  YSize: 8
  ZSize: 6
  AssetGuid: ba67f7fc-7c55-445c-bc76-c7782162e814
  bserializedVoxels: 1f8b08005bc6495700ffcd565b0e84200cc49b730d4ecb7697041bcab45da5a21f0d19fa9819099a724da97ae2912b3d32f25ab9db907f73289f9e696c6cd16e04eef4876bbcb35ee261840fa827f9b384b3d9074d89c08737c8b54fcfc3914b29e4c3370eb5a62e997f0df1f9907e7c5a2459f0dde9dd38435d7bcf543c44b37aedd473be8b3aecc2891bd77b676d6ae73ea0f52e1fd0dcb5fe28539ceea10ebbf0b7f983ce15c77d5eadbd7fce5b17ddbd5327875381987bd4f973d09408bcb39237cfa03db12f97e2a1a8f2fe377626ce0ec80ddec7cc91aae3902775d12c537be383f4eabba8ea32fe013910a062600c0000
  HasDeserialized: 1
--- !u!114 &11495394
MonoBehaviour:
  m_ObjectHideFlags: 1
  m_PrefabParentObject: {fileID: 0}
  m_PrefabInternal: {fileID: 100100000}
  m_GameObject: {fileID: 195400}
  m_Enabled: 1
  m_EditorHideFlags: 0
  m_Script: {fileID: 11500000, guid: f481c0c791c90fd44bde5912521607c6, type: 3}
  m_Name: 
  m_EditorClassIdentifier: 
  FramePrefab: {fileID: 103154, guid: 878ed78a25d46de4ea3cb382e3682dd8, type: 2}
  SaveToMeshStore: 1
  XChunkSize: 16
  YChunkSize: 16
  ZChunkSize: 16
  XSize: 11
  YSize: 8
  ZSize: 6
  VoxelSize: 0.1
  OverlapAmount: 0
  Pivot: {x: 0.55, y: 0.4, z: 0.3}
  CurrentFrame: 0
  Frames:
  - {fileID: 11495392}
  - {fileID: 11495390}
  - {fileID: 11495388}
  Hitbox: {fileID: 6595380}
  MeshingMode: 0
  MeshColliderMeshingMode: 0
  GenerateMeshColliderSeparately: 0
  Material: {fileID: 2100000, guid: d05b013250f9a3a41a16c1583247d6df, type: 2}
  PhysicMaterial: {fileID: 0}
  CollisionTrigger: 0
  CollisionMode: 0
  SelfShadingIntensity: 0.2
  CastShadows: 1
  ReceiveShadows: 1
  ChunkLayer: 0
  PaletteColors:
  - {r: 1, g: 1, b: 1, a: 1}
  - {r: 0.4, g: 0.4, b: 0.4, a: 1}
  - {r: 1, g: 0, b: 0, a: 1}
  - {r: 0, g: 1, b: 0, a: 1}
  - {r: 0, g: 0, b: 1, a: 1}
  - {r: 0.88235295, g: 0.88235295, b: 0.88235295, a: 1}
  - {r: 0.29803923, g: 0.29803923, b: 0.29803923, a: 1}
  - {r: 1, g: 1, b: 0, a: 1}
  - {r: 0, g: 1, b: 1, a: 1}
  - {r: 1, g: 0, b: 1, a: 1}
  - {r: 0.7058824, g: 0.7058824, b: 0.7058824, a: 1}
  - {r: 0.2, g: 0.2, b: 0.2, a: 1}
  - {r: 0.625, g: 0.35, b: 0, a: 1}
  - {r: 0, g: 0.6397059, b: 0, a: 1}
  - {r: 1, g: 0.65882355, b: 0, a: 1}
  - {r: 0.6, g: 0.6, b: 0.6, a: 1}
  - {r: 0.09803922, g: 0.09803922, b: 0.09803922, a: 1}
  - {r: 0.3897059, g: 0.21951787, b: 0, a: 1}
  - {r: 0, g: 0.45588237, b: 0, a: 1}
  - {r: 0.8509804, g: 0.7058824, b: 0.5411765, a: 1}
  - {r: 0.5019608, g: 0.5019608, b: 0.5019608, a: 1}
  - {r: 0, g: 0, b: 0, a: 1}
  - {r: 0.25, g: 0.14141414, b: 0, a: 1}
  - {r: 0, g: 0.2647059, b: 0, a: 1}
  - {r: 0.8455882, g: 0.7168463, b: 0.20517948, a: 1}
  RuntimOnlyMesh: 1
  IsEnabledForEditing: 0
  DrawGrid: 0
  DrawMesh: 0
  AssetGuid: d1384746-5eb5-461f-be47-08c7c9bba558
  PaintMode: 0
  MeshCompression: 0
  ImportedFrom: 0
  ImportedFile: 
  ImportedCutoutColor: {r: 0, g: 0, b: 0, a: 0}
  thisInstanceId: 0
  Undone: 0
--- !u!1001 &100100000
Prefab:
  m_ObjectHideFlags: 1
  serializedVersion: 2
  m_Modification:
    m_TransformParent: {fileID: 0}
    m_Modifications: []
    m_RemovedComponents: []
  m_ParentPrefab: {fileID: 0}
  m_RootGameObject: {fileID: 195400}
  m_IsPrefabParent: 1
